ilnurkh@ILNURKH-W7 ~/seminar0912
$ bash build.sh
run 1M
10000000
10000000
10000000
10000000
10000000

real    0m0.820s
user    0m0.640s
sys     0m0.000s
run  1M for generage profile
10000000
10000000
10000000
10000000
10000000

real    0m2.475s
user    0m2.250s
sys     0m0.015s
run  1M with generated profile
10000000
10000000
10000000
10000000
10000000

real    0m0.821s
user    0m0.671s
sys     0m0.015s
run  1M O2 for generage profile
10000000
10000000
10000000
10000000
10000000

real    0m0.776s
user    0m0.562s
sys     0m0.015s
run  1M O2 with generated profile
10000000
10000000
10000000
10000000
10000000

real    0m0.142s
user    0m0.125s
sys     0m0.000s
run  1M O2 lto for generage profile
10000000
10000000
10000000
10000000
10000000

real    0m0.564s
user    0m0.484s
sys     0m0.015s
run  1M O2 lto with generated profile
10000000
10000000
10000000
10000000
10000000

real    0m0.117s
user    0m0.031s
sys     0m0.015s
run  1M O3 lto for generage profile
10000000
10000000
10000000
10000000
10000000

real    0m0.579s
user    0m0.484s
sys     0m0.030s
run  1M O3 lto with generated profile
10000000
10000000
10000000
10000000
10000000

real    0m0.047s
user    0m0.031s
sys     0m0.015s
run O2 lto 1M
10000000
10000000
10000000
10000000
10000000

real    0m0.097s
user    0m0.062s
sys     0m0.015s
run O3 lto 1M
10000000
10000000
10000000
10000000
10000000

real    0m0.099s
user    0m0.078s
sys     0m0.016s
